{
  "configVersion": 2,
  "packages": [
    {
      "name": "_fe_analyzer_shared",
      "rootUri": "file:///usr/local/flutter/.pub-cache/hosted/pub.dartlang.org/_fe_analyzer_shared-38.0.0",
      "packageUri": "lib/",
      "languageVersion": "2.12"
    },
    {
      "name": "analyzer",
      "rootUri": "file:///usr/local/flutter/.pub-cache/hosted/pub.dartlang.org/analyzer-3.4.1",
      "packageUri": "lib/",
      "languageVersion": "2.14"
    },
    {
      "name": "archive",
      "rootUri": "file:///usr/local/flutter/.pub-cache/hosted/pub.dartlang.org/archive-3.3.0",
      "packageUri": "lib/",
      "languageVersion": "2.12"
    },
    {
      "name": "args",
      "rootUri": "file:///usr/local/flutter/.pub-cache/hosted/pub.dartlang.org/args-2.3.0",
      "packageUri": "lib/",
      "languageVersion": "2.12"
    },
    {
      "name": "async",
      "rootUri": "file:///usr/local/flutter/.pub-cache/hosted/pub.dartlang.org/async-2.8.2",
      "packageUri": "lib/",
      "languageVersion": "2.12"
    },
    {
      "name": "bloc",
      "rootUri": "file:///usr/local/flutter/.pub-cache/hosted/pub.dartlang.org/bloc-8.0.3",
      "packageUri": "lib/",
      "languageVersion": "2.12"
    },
    {
      "name": "boolean_selector",
      "rootUri": "file:///usr/local/flutter/.pub-cache/hosted/pub.dartlang.org/boolean_selector-2.1.0",
      "packageUri": "lib/",
      "languageVersion": "2.12"
    },
    {
      "name": "build",
      "rootUri": "file:///usr/local/flutter/.pub-cache/hosted/pub.dartlang.org/build-2.3.0",
      "packageUri": "lib/",
      "languageVersion": "2.14"
    },
    {
      "name": "build_config",
      "rootUri": "file:///usr/local/flutter/.pub-cache/hosted/pub.dartlang.org/build_config-1.0.0",
      "packageUri": "lib/",
      "languageVersion": "2.12"
    },
    {
      "name": "build_daemon",
      "rootUri": "file:///usr/local/flutter/.pub-cache/hosted/pub.dartlang.org/build_daemon-3.1.0",
      "packageUri": "lib/",
      "languageVersion": "2.14"
    },
    {
      "name": "build_resolvers",
      "rootUri": "file:///usr/local/flutter/.pub-cache/hosted/pub.dartlang.org/build_resolvers-2.0.8",
      "packageUri": "lib/",
      "languageVersion": "2.14"
    },
    {
      "name": "build_runner",
      "rootUri": "file:///usr/local/flutter/.pub-cache/hosted/pub.dartlang.org/build_runner-2.1.10",
      "packageUri": "lib/",
      "languageVersion": "2.14"
    },
    {
      "name": "build_runner_core",
      "rootUri": "file:///usr/local/flutter/.pub-cache/hosted/pub.dartlang.org/build_runner_core-7.2.3",
      "packageUri": "lib/",
      "languageVersion": "2.14"
    },
    {
      "name": "built_collection",
      "rootUri": "file:///usr/local/flutter/.pub-cache/hosted/pub.dartlang.org/built_collection-5.1.1",
      "packageUri": "lib/",
      "languageVersion": "2.12"
    },
    {
      "name": "built_value",
      "rootUri": "file:///usr/local/flutter/.pub-cache/hosted/pub.dartlang.org/built_value-8.2.0",
      "packageUri": "lib/",
      "languageVersion": "2.12"
    },
    {
      "name": "characters",
      "rootUri": "file:///usr/local/flutter/.pub-cache/hosted/pub.dartlang.org/characters-1.2.0",
      "packageUri": "lib/",
      "languageVersion": "2.12"
    },
    {
      "name": "charcode",
      "rootUri": "file:///usr/local/flutter/.pub-cache/hosted/pub.dartlang.org/charcode-1.3.1",
      "packageUri": "lib/",
      "languageVersion": "2.12"
    },
    {
      "name": "checked_yaml",
      "rootUri": "file:///usr/local/flutter/.pub-cache/hosted/pub.dartlang.org/checked_yaml-2.0.1",
      "packageUri": "lib/",
      "languageVersion": "2.12"
    },
    {
      "name": "clock",
      "rootUri": "file:///usr/local/flutter/.pub-cache/hosted/pub.dartlang.org/clock-1.1.0",
      "packageUri": "lib/",
      "languageVersion": "2.12"
    },
    {
      "name": "code_builder",
      "rootUri": "file:///usr/local/flutter/.pub-cache/hosted/pub.dartlang.org/code_builder-4.1.0",
      "packageUri": "lib/",
      "languageVersion": "2.12"
    },
    {
      "name": "collection",
      "rootUri": "file:///usr/local/flutter/.pub-cache/hosted/pub.dartlang.org/collection-1.15.0",
      "packageUri": "lib/",
      "languageVersion": "2.12"
    },
    {
      "name": "convert",
      "rootUri": "file:///usr/local/flutter/.pub-cache/hosted/pub.dartlang.org/convert-3.0.1",
      "packageUri": "lib/",
      "languageVersion": "2.12"
    },
    {
      "name": "crypto",
      "rootUri": "file:///usr/local/flutter/.pub-cache/hosted/pub.dartlang.org/crypto-3.0.1",
      "packageUri": "lib/",
      "languageVersion": "2.12"
    },
    {
      "name": "csslib",
      "rootUri": "file:///usr/local/flutter/.pub-cache/hosted/pub.dartlang.org/csslib-0.17.1",
      "packageUri": "lib/",
      "languageVersion": "2.12"
    },
    {
      "name": "cupertino_icons",
      "rootUri": "file:///usr/local/flutter/.pub-cache/hosted/pub.dartlang.org/cupertino_icons-1.0.4",
      "packageUri": "lib/",
      "languageVersion": "2.12"
    },
    {
      "name": "dart_style",
      "rootUri": "file:///usr/local/flutter/.pub-cache/hosted/pub.dartlang.org/dart_style-2.2.3",
      "packageUri": "lib/",
      "languageVersion": "2.12"
    },
    {
      "name": "delayed_display",
      "rootUri": "file:///usr/local/flutter/.pub-cache/hosted/pub.dartlang.org/delayed_display-2.0.0",
      "packageUri": "lib/",
      "languageVersion": "2.12"
    },
    {
      "name": "device_info",
      "rootUri": "file:///usr/local/flutter/.pub-cache/hosted/pub.dartlang.org/device_info-2.0.3",
      "packageUri": "lib/",
      "languageVersion": "2.12"
    },
    {
      "name": "device_info_platform_interface",
      "rootUri": "file:///usr/local/flutter/.pub-cache/hosted/pub.dartlang.org/device_info_platform_interface-2.0.1",
      "packageUri": "lib/",
      "languageVersion": "2.12"
    },
    {
      "name": "dio",
      "rootUri": "file:///usr/local/flutter/.pub-cache/hosted/pub.dartlang.org/dio-4.0.6",
      "packageUri": "lib/",
      "languageVersion": "2.12"
    },
    {
      "name": "equatable",
      "rootUri": "file:///usr/local/flutter/.pub-cache/hosted/pub.dartlang.org/equatable-2.0.3",
      "packageUri": "lib/",
      "languageVersion": "2.12"
    },
    {
      "name": "fake_async",
      "rootUri": "file:///usr/local/flutter/.pub-cache/hosted/pub.dartlang.org/fake_async-1.2.0",
      "packageUri": "lib/",
      "languageVersion": "2.12"
    },
    {
      "name": "ffi",
      "rootUri": "file:///usr/local/flutter/.pub-cache/hosted/pub.dartlang.org/ffi-1.1.2",
      "packageUri": "lib/",
      "languageVersion": "2.12"
    },
    {
      "name": "file",
      "rootUri": "file:///usr/local/flutter/.pub-cache/hosted/pub.dartlang.org/file-6.1.2",
      "packageUri": "lib/",
      "languageVersion": "2.12"
    },
    {
      "name": "fixnum",
      "rootUri": "file:///usr/local/flutter/.pub-cache/hosted/pub.dartlang.org/fixnum-1.0.0",
      "packageUri": "lib/",
      "languageVersion": "2.12"
    },
    {
      "name": "flutter",
      "rootUri": "file:///usr/local/flutter/packages/flutter",
      "packageUri": "lib/",
      "languageVersion": "2.12"
    },
    {
      "name": "flutter_bloc",
      "rootUri": "file:///usr/local/flutter/.pub-cache/hosted/pub.dartlang.org/flutter_bloc-8.0.1",
      "packageUri": "lib/",
      "languageVersion": "2.12"
    },
    {
      "name": "flutter_cupertino_localizations",
      "rootUri": "file:///usr/local/flutter/.pub-cache/hosted/pub.dartlang.org/flutter_cupertino_localizations-1.0.1",
      "packageUri": "lib/",
      "languageVersion": "2.0"
    },
    {
      "name": "flutter_html",
      "rootUri": "file:///usr/local/flutter/.pub-cache/hosted/pub.dartlang.org/flutter_html-3.0.0-alpha.3",
      "packageUri": "lib/",
      "languageVersion": "2.12"
    },
    {
      "name": "flutter_launcher_icons",
      "rootUri": "file:///usr/local/flutter/.pub-cache/hosted/pub.dartlang.org/flutter_launcher_icons-0.9.2",
      "packageUri": "lib/",
      "languageVersion": "2.12"
    },
    {
      "name": "flutter_localizations",
      "rootUri": "file:///usr/local/flutter/packages/flutter_localizations",
      "packageUri": "lib/",
      "languageVersion": "2.12"
    },
    {
      "name": "flutter_mobx",
      "rootUri": "file:///usr/local/flutter/.pub-cache/hosted/pub.dartlang.org/flutter_mobx-2.0.4",
      "packageUri": "lib/",
      "languageVersion": "2.12"
    },
    {
      "name": "flutter_native_splash",
      "rootUri": "file:///usr/local/flutter/.pub-cache/hosted/pub.dartlang.org/flutter_native_splash-2.1.6",
      "packageUri": "lib/",
      "languageVersion": "2.15"
    },
    {
      "name": "flutter_platform_widgets",
      "rootUri": "file:///usr/local/flutter/.pub-cache/hosted/pub.dartlang.org/flutter_platform_widgets-1.20.0",
      "packageUri": "lib/",
      "languageVersion": "2.12"
    },
    {
      "name": "flutter_test",
      "rootUri": "file:///usr/local/flutter/packages/flutter_test",
      "packageUri": "lib/",
      "languageVersion": "2.12"
    },
    {
      "name": "flutter_web_plugins",
      "rootUri": "file:///usr/local/flutter/packages/flutter_web_plugins",
      "packageUri": "lib/",
      "languageVersion": "2.12"
    },
    {
      "name": "frontend_server_client",
      "rootUri": "file:///usr/local/flutter/.pub-cache/hosted/pub.dartlang.org/frontend_server_client-2.1.2",
      "packageUri": "lib/",
      "languageVersion": "2.12"
    },
    {
      "name": "get",
      "rootUri": "file:///usr/local/flutter/.pub-cache/hosted/pub.dartlang.org/get-4.6.1",
      "packageUri": "lib/",
      "languageVersion": "2.12"
    },
    {
      "name": "get_it",
      "rootUri": "file:///usr/local/flutter/.pub-cache/hosted/pub.dartlang.org/get_it-7.2.0",
      "packageUri": "lib/",
      "languageVersion": "2.12"
    },
    {
      "name": "glob",
      "rootUri": "file:///usr/local/flutter/.pub-cache/hosted/pub.dartlang.org/glob-2.0.2",
      "packageUri": "lib/",
      "languageVersion": "2.14"
    },
    {
      "name": "graphs",
      "rootUri": "file:///usr/local/flutter/.pub-cache/hosted/pub.dartlang.org/graphs-2.1.0",
      "packageUri": "lib/",
      "languageVersion": "2.12"
    },
    {
      "name": "html",
      "rootUri": "file:///usr/local/flutter/.pub-cache/hosted/pub.dartlang.org/html-0.15.0",
      "packageUri": "lib/",
      "languageVersion": "2.12"
    },
    {
      "name": "http_multi_server",
      "rootUri": "file:///usr/local/flutter/.pub-cache/hosted/pub.dartlang.org/http_multi_server-3.2.0",
      "packageUri": "lib/",
      "languageVersion": "2.12"
    },
    {
      "name": "http_parser",
      "rootUri": "file:///usr/local/flutter/.pub-cache/hosted/pub.dartlang.org/http_parser-4.0.0",
      "packageUri": "lib/",
      "languageVersion": "2.12"
    },
    {
      "name": "image",
      "rootUri": "file:///usr/local/flutter/.pub-cache/hosted/pub.dartlang.org/image-3.1.3",
      "packageUri": "lib/",
      "languageVersion": "2.12"
    },
    {
      "name": "intl",
      "rootUri": "file:///usr/local/flutter/.pub-cache/hosted/pub.dartlang.org/intl-0.17.0",
      "packageUri": "lib/",
      "languageVersion": "2.12"
    },
    {
      "name": "io",
      "rootUri": "file:///usr/local/flutter/.pub-cache/hosted/pub.dartlang.org/io-1.0.3",
      "packageUri": "lib/",
      "languageVersion": "2.12"
    },
    {
      "name": "js",
      "rootUri": "file:///usr/local/flutter/.pub-cache/hosted/pub.dartlang.org/js-0.6.3",
      "packageUri": "lib/",
      "languageVersion": "2.12"
    },
    {
      "name": "json_annotation",
      "rootUri": "file:///usr/local/flutter/.pub-cache/hosted/pub.dartlang.org/json_annotation-4.4.0",
      "packageUri": "lib/",
      "languageVersion": "2.14"
    },
    {
      "name": "lint",
      "rootUri": "file:///usr/local/flutter/.pub-cache/hosted/pub.dartlang.org/lint-1.8.2",
      "packageUri": "lib/",
      "languageVersion": "2.15"
    },
    {
      "name": "logging",
      "rootUri": "file:///usr/local/flutter/.pub-cache/hosted/pub.dartlang.org/logging-1.0.2",
      "packageUri": "lib/",
      "languageVersion": "2.12"
    },
    {
      "name": "matcher",
      "rootUri": "file:///usr/local/flutter/.pub-cache/hosted/pub.dartlang.org/matcher-0.12.11",
      "packageUri": "lib/",
      "languageVersion": "2.12"
    },
    {
      "name": "material_color_utilities",
      "rootUri": "file:///usr/local/flutter/.pub-cache/hosted/pub.dartlang.org/material_color_utilities-0.1.3",
      "packageUri": "lib/",
      "languageVersion": "2.13"
    },
    {
      "name": "meta",
      "rootUri": "file:///usr/local/flutter/.pub-cache/hosted/pub.dartlang.org/meta-1.7.0",
      "packageUri": "lib/",
      "languageVersion": "2.12"
    },
    {
      "name": "mime",
      "rootUri": "file:///usr/local/flutter/.pub-cache/hosted/pub.dartlang.org/mime-1.0.1",
      "packageUri": "lib/",
      "languageVersion": "2.12"
    },
    {
      "name": "mobx",
      "rootUri": "file:///usr/local/flutter/.pub-cache/hosted/pub.dartlang.org/mobx-2.0.6+1",
      "packageUri": "lib/",
      "languageVersion": "2.12"
    },
    {
      "name": "mobx_codegen",
      "rootUri": "file:///usr/local/flutter/.pub-cache/hosted/pub.dartlang.org/mobx_codegen-2.0.5+2",
      "packageUri": "lib/",
      "languageVersion": "2.12"
    },
    {
      "name": "nested",
      "rootUri": "file:///usr/local/flutter/.pub-cache/hosted/pub.dartlang.org/nested-1.0.0",
      "packageUri": "lib/",
      "languageVersion": "2.12"
    },
    {
      "name": "numerus",
      "rootUri": "file:///usr/local/flutter/.pub-cache/hosted/pub.dartlang.org/numerus-1.1.1",
      "packageUri": "lib/",
      "languageVersion": "2.12"
    },
    {
      "name": "package_config",
      "rootUri": "file:///usr/local/flutter/.pub-cache/hosted/pub.dartlang.org/package_config-2.0.2",
      "packageUri": "lib/",
      "languageVersion": "2.12"
    },
    {
      "name": "package_info",
      "rootUri": "file:///usr/local/flutter/.pub-cache/hosted/pub.dartlang.org/package_info-2.0.2",
      "packageUri": "lib/",
      "languageVersion": "2.12"
    },
    {
      "name": "path",
      "rootUri": "file:///usr/local/flutter/.pub-cache/hosted/pub.dartlang.org/path-1.8.0",
      "packageUri": "lib/",
      "languageVersion": "2.12"
    },
    {
      "name": "path_provider",
      "rootUri": "file:///usr/local/flutter/.pub-cache/hosted/pub.dartlang.org/path_provider-2.0.9",
      "packageUri": "lib/",
      "languageVersion": "2.14"
    },
    {
      "name": "path_provider_android",
      "rootUri": "file:///usr/local/flutter/.pub-cache/hosted/pub.dartlang.org/path_provider_android-2.0.12",
      "packageUri": "lib/",
      "languageVersion": "2.14"
    },
    {
      "name": "path_provider_ios",
      "rootUri": "file:///usr/local/flutter/.pub-cache/hosted/pub.dartlang.org/path_provider_ios-2.0.8",
      "packageUri": "lib/",
      "languageVersion": "2.14"
    },
    {
      "name": "path_provider_linux",
      "rootUri": "file:///usr/local/flutter/.pub-cache/hosted/pub.dartlang.org/path_provider_linux-2.1.5",
      "packageUri": "lib/",
      "languageVersion": "2.12"
    },
    {
      "name": "path_provider_macos",
      "rootUri": "file:///usr/local/flutter/.pub-cache/hosted/pub.dartlang.org/path_provider_macos-2.0.5",
      "packageUri": "lib/",
      "languageVersion": "2.12"
    },
    {
      "name": "path_provider_platform_interface",
      "rootUri": "file:///usr/local/flutter/.pub-cache/hosted/pub.dartlang.org/path_provider_platform_interface-2.0.3",
      "packageUri": "lib/",
      "languageVersion": "2.12"
    },
    {
      "name": "path_provider_windows",
      "rootUri": "file:///usr/local/flutter/.pub-cache/hosted/pub.dartlang.org/path_provider_windows-2.0.5",
      "packageUri": "lib/",
      "languageVersion": "2.12"
    },
    {
      "name": "permission_handler",
      "rootUri": "file:///usr/local/flutter/.pub-cache/hosted/pub.dartlang.org/permission_handler-9.2.0",
      "packageUri": "lib/",
      "languageVersion": "2.15"
    },
    {
      "name": "permission_handler_android",
      "rootUri": "file:///usr/local/flutter/.pub-cache/hosted/pub.dartlang.org/permission_handler_android-9.0.2+1",
      "packageUri": "lib/",
      "languageVersion": "2.15"
    },
    {
      "name": "permission_handler_apple",
      "rootUri": "file:///usr/local/flutter/.pub-cache/hosted/pub.dartlang.org/permission_handler_apple-9.0.4",
      "packageUri": "lib/",
      "languageVersion": "2.15"
    },
    {
      "name": "permission_handler_platform_interface",
      "rootUri": "file:///usr/local/flutter/.pub-cache/hosted/pub.dartlang.org/permission_handler_platform_interface-3.7.0",
      "packageUri": "lib/",
      "languageVersion": "2.14"
    },
    {
      "name": "permission_handler_windows",
      "rootUri": "file:///usr/local/flutter/.pub-cache/hosted/pub.dartlang.org/permission_handler_windows-0.1.0",
      "packageUri": "lib/",
      "languageVersion": "2.12"
    },
    {
      "name": "petitparser",
      "rootUri": "file:///usr/local/flutter/.pub-cache/hosted/pub.dartlang.org/petitparser-4.4.0",
      "packageUri": "lib/",
      "languageVersion": "2.14"
    },
    {
      "name": "platform",
      "rootUri": "file:///usr/local/flutter/.pub-cache/hosted/pub.dartlang.org/platform-3.1.0",
      "packageUri": "lib/",
      "languageVersion": "2.12"
    },
    {
      "name": "plugin_platform_interface",
      "rootUri": "file:///usr/local/flutter/.pub-cache/hosted/pub.dartlang.org/plugin_platform_interface-2.1.2",
      "packageUri": "lib/",
      "languageVersion": "2.12"
    },
    {
      "name": "pool",
      "rootUri": "file:///usr/local/flutter/.pub-cache/hosted/pub.dartlang.org/pool-1.5.0",
      "packageUri": "lib/",
      "languageVersion": "2.12"
    },
    {
      "name": "process",
      "rootUri": "file:///usr/local/flutter/.pub-cache/hosted/pub.dartlang.org/process-4.2.4",
      "packageUri": "lib/",
      "languageVersion": "2.14"
    },
    {
      "name": "provider",
      "rootUri": "file:///usr/local/flutter/.pub-cache/hosted/pub.dartlang.org/provider-6.0.2",
      "packageUri": "lib/",
      "languageVersion": "2.12"
    },
    {
      "name": "pub_semver",
      "rootUri": "file:///usr/local/flutter/.pub-cache/hosted/pub.dartlang.org/pub_semver-2.1.1",
      "packageUri": "lib/",
      "languageVersion": "2.12"
    },
    {
      "name": "pubspec_parse",
      "rootUri": "file:///usr/local/flutter/.pub-cache/hosted/pub.dartlang.org/pubspec_parse-1.2.0",
      "packageUri": "lib/",
      "languageVersion": "2.14"
    },
    {
      "name": "scroll_app_bar",
      "rootUri": "file:///usr/local/flutter/.pub-cache/hosted/pub.dartlang.org/scroll_app_bar-2.0.0",
      "packageUri": "lib/",
      "languageVersion": "2.12"
    },
    {
      "name": "scroll_bars_common",
      "rootUri": "file:///usr/local/flutter/.pub-cache/hosted/pub.dartlang.org/scroll_bars_common-3.0.0",
      "packageUri": "lib/",
      "languageVersion": "2.12"
    },
    {
      "name": "shared_preferences",
      "rootUri": "file:///usr/local/flutter/.pub-cache/hosted/pub.dartlang.org/shared_preferences-2.0.13",
      "packageUri": "lib/",
      "languageVersion": "2.14"
    },
    {
      "name": "shared_preferences_android",
      "rootUri": "file:///usr/local/flutter/.pub-cache/hosted/pub.dartlang.org/shared_preferences_android-2.0.11",
      "packageUri": "lib/",
      "languageVersion": "2.14"
    },
    {
      "name": "shared_preferences_ios",
      "rootUri": "file:///usr/local/flutter/.pub-cache/hosted/pub.dartlang.org/shared_preferences_ios-2.1.0",
      "packageUri": "lib/",
      "languageVersion": "2.14"
    },
    {
      "name": "shared_preferences_linux",
      "rootUri": "file:///usr/local/flutter/.pub-cache/hosted/pub.dartlang.org/shared_preferences_linux-2.1.0",
      "packageUri": "lib/",
      "languageVersion": "2.12"
    },
    {
      "name": "shared_preferences_macos",
      "rootUri": "file:///usr/local/flutter/.pub-cache/hosted/pub.dartlang.org/shared_preferences_macos-2.0.3",
      "packageUri": "lib/",
      "languageVersion": "2.12"
    },
    {
      "name": "shared_preferences_platform_interface",
      "rootUri": "file:///usr/local/flutter/.pub-cache/hosted/pub.dartlang.org/shared_preferences_platform_interface-2.0.0",
      "packageUri": "lib/",
      "languageVersion": "2.12"
    },
    {
      "name": "shared_preferences_web",
      "rootUri": "file:///usr/local/flutter/.pub-cache/hosted/pub.dartlang.org/shared_preferences_web-2.0.3",
      "packageUri": "lib/",
      "languageVersion": "2.12"
    },
    {
      "name": "shared_preferences_windows",
      "rootUri": "file:///usr/local/flutter/.pub-cache/hosted/pub.dartlang.org/shared_preferences_windows-2.1.0",
      "packageUri": "lib/",
      "languageVersion": "2.12"
    },
    {
      "name": "shelf",
      "rootUri": "file:///usr/local/flutter/.pub-cache/hosted/pub.dartlang.org/shelf-1.3.0",
      "packageUri": "lib/",
      "languageVersion": "2.16"
    },
    {
      "name": "shelf_web_socket",
      "rootUri": "file:///usr/local/flutter/.pub-cache/hosted/pub.dartlang.org/shelf_web_socket-1.0.1",
      "packageUri": "lib/",
      "languageVersion": "2.12"
    },
    {
      "name": "sky_engine",
      "rootUri": "file:///usr/local/flutter/bin/cache/pkg/sky_engine",
      "packageUri": "lib/",
      "languageVersion": "2.12"
    },
    {
      "name": "source_gen",
      "rootUri": "file:///usr/local/flutter/.pub-cache/hosted/pub.dartlang.org/source_gen-1.2.2",
      "packageUri": "lib/",
      "languageVersion": "2.12"
    },
    {
      "name": "source_span",
      "rootUri": "file:///usr/local/flutter/.pub-cache/hosted/pub.dartlang.org/source_span-1.8.1",
      "packageUri": "lib/",
      "languageVersion": "2.12"
    },
    {
      "name": "stack_trace",
      "rootUri": "file:///usr/local/flutter/.pub-cache/hosted/pub.dartlang.org/stack_trace-1.10.0",
      "packageUri": "lib/",
      "languageVersion": "2.12"
    },
    {
      "name": "stream_channel",
      "rootUri": "file:///usr/local/flutter/.pub-cache/hosted/pub.dartlang.org/stream_channel-2.1.0",
      "packageUri": "lib/",
      "languageVersion": "2.12"
    },
    {
      "name": "stream_transform",
      "rootUri": "file:///usr/local/flutter/.pub-cache/hosted/pub.dartlang.org/stream_transform-2.0.0",
      "packageUri": "lib/",
      "languageVersion": "2.12"
    },
    {
      "name": "string_scanner",
      "rootUri": "file:///usr/local/flutter/.pub-cache/hosted/pub.dartlang.org/string_scanner-1.1.0",
      "packageUri": "lib/",
      "languageVersion": "2.12"
    },
    {
      "name": "term_glyph",
      "rootUri": "file:///usr/local/flutter/.pub-cache/hosted/pub.dartlang.org/term_glyph-1.2.0",
      "packageUri": "lib/",
      "languageVersion": "2.12"
    },
    {
      "name": "test_api",
      "rootUri": "file:///usr/local/flutter/.pub-cache/hosted/pub.dartlang.org/test_api-0.4.8",
      "packageUri": "lib/",
      "languageVersion": "2.12"
    },
    {
      "name": "timing",
      "rootUri": "file:///usr/local/flutter/.pub-cache/hosted/pub.dartlang.org/timing-1.0.0",
      "packageUri": "lib/",
      "languageVersion": "2.12"
    },
    {
      "name": "typed_data",
      "rootUri": "file:///usr/local/flutter/.pub-cache/hosted/pub.dartlang.org/typed_data-1.3.0",
      "packageUri": "lib/",
      "languageVersion": "2.12"
    },
    {
      "name": "universal_io",
      "rootUri": "file:///usr/local/flutter/.pub-cache/hosted/pub.dartlang.org/universal_io-2.0.4",
      "packageUri": "lib/",
      "languageVersion": "2.12"
    },
    {
      "name": "vector_math",
      "rootUri": "file:///usr/local/flutter/.pub-cache/hosted/pub.dartlang.org/vector_math-2.1.1",
      "packageUri": "lib/",
      "languageVersion": "2.14"
    },
    {
      "name": "watcher",
      "rootUri": "file:///usr/local/flutter/.pub-cache/hosted/pub.dartlang.org/watcher-1.0.1",
      "packageUri": "lib/",
      "languageVersion": "2.14"
    },
    {
      "name": "web_socket_channel",
      "rootUri": "file:///usr/local/flutter/.pub-cache/hosted/pub.dartlang.org/web_socket_channel-2.1.0",
      "packageUri": "lib/",
      "languageVersion": "2.12"
    },
    {
      "name": "webview_flutter",
      "rootUri": "file:///usr/local/flutter/.pub-cache/hosted/pub.dartlang.org/webview_flutter-3.0.2",
      "packageUri": "lib/",
      "languageVersion": "2.14"
    },
    {
      "name": "webview_flutter_android",
      "rootUri": "file:///usr/local/flutter/.pub-cache/hosted/pub.dartlang.org/webview_flutter_android-2.8.5",
      "packageUri": "lib/",
      "languageVersion": "2.14"
    },
    {
      "name": "webview_flutter_platform_interface",
      "rootUri": "file:///usr/local/flutter/.pub-cache/hosted/pub.dartlang.org/webview_flutter_platform_interface-1.8.1",
      "packageUri": "lib/",
      "languageVersion": "2.12"
    },
    {
      "name": "webview_flutter_wkwebview",
      "rootUri": "file:///usr/local/flutter/.pub-cache/hosted/pub.dartlang.org/webview_flutter_wkwebview-2.7.2",
      "packageUri": "lib/",
      "languageVersion": "2.14"
    },
    {
      "name": "win32",
      "rootUri": "file:///usr/local/flutter/.pub-cache/hosted/pub.dartlang.org/win32-2.5.1",
      "packageUri": "lib/",
      "languageVersion": "2.15"
    },
    {
      "name": "xdg_directories",
      "rootUri": "file:///usr/local/flutter/.pub-cache/hosted/pub.dartlang.org/xdg_directories-0.2.0+1",
      "packageUri": "lib/",
      "languageVersion": "2.12"
    },
    {
      "name": "xml",
      "rootUri": "file:///usr/local/flutter/.pub-cache/hosted/pub.dartlang.org/xml-5.3.1",
      "packageUri": "lib/",
      "languageVersion": "2.14"
    },
    {
      "name": "yaml",
      "rootUri": "file:///usr/local/flutter/.pub-cache/hosted/pub.dartlang.org/yaml-3.1.0",
      "packageUri": "lib/",
      "languageVersion": "2.12"
    },
    {
      "name": "listagem_edusoft",
      "rootUri": "../",
      "packageUri": "lib/",
      "languageVersion": "2.12"
    }
  ],
  "generated": "2022-04-21T21:32:48.952036Z",
  "generator": "pub",
  "generatorVersion": "2.16.2"
}
